<?xml version="1.0" encoding="utf-8"?>
<!-- Generator: Adobe Illustrator 25.4.0, SVG Export Plug-In . SVG Version: 6.00 Build 0)  -->
<svg version="1.1" id="Layer_1" xmlns="http://www.w3.org/2000/svg" xmlns:xlink="http://www.w3.org/1999/xlink" x="0px" y="0px"
	 viewBox="0 0 32 32" style="enable-background:new 0 0 32 32;" xml:space="preserve">
<style type="text/css">
	.st0{fill:#7680F4;}
	.st1{fill:#6471CC;}
	.st2{fill:#4A5396;}
	.st3{fill:#3D447A;}
</style>
<path class="st0" d="M16,6.8V0L1,14.6c-0.6,0.6-0.6,1.5,0,2l2.5,2.5"/>
<path class="st1" d="M16,6.8V0l15,14.6c0.6,0.6,0.6,1.5,0,2l-2.5,2.5"/>
<path class="st2" d="M3.6,19.2l6-6H16v6"/>
<path class="st3" d="M28.4,19.2l-6-6H16v6"/>
<path class="st2" d="M16,26h-6l3-3.2L16,26z"/>
<path class="st1" d="M16,32l6-6h-6V32z"/>
<path class="st0" d="M16,32l-6-6h6V32z"/>
<path class="st3" d="M16,26h6l-3-3.2L16,26z"/>
<path class="st0" d="M7.7,21.8c-0.5,0.6-0.5,1.4,0,2L10,26l6-6.4v-6.4"/>
<path class="st1" d="M24.3,21.8c0.5,0.6,0.5,1.4,0,2L22,26l-6-6.4v-6.4"/>
</svg>
